{
  "project_info": {
    "project_number": "149384062292",
    "project_id": "regoga-f2d5f",
    "storage_bucket": "regoga-f2d5f.appspot.com"
  },
  "client": [
    {
      "client_info": {
        "mobilesdk_app_id": "1:149384062292:android:d479c240e5f49e017e54c1",
        "android_client_info": {
          "package_name": "com.example.firebasereg"
        }
      },
      "oauth_client": [
        {
          "client_id": "149384062292-1dhhksgu2akcaj6v9adshtu7i0s5rd0b.apps.googleusercontent.com",
          "client_type": 3
        }
      ],
      "api_key": [
        {
          "current_key": "AIzaSyCdIsRTck4Ag_XgpUJPRGldDl-CvK28I7M"
        }
      ],
      "services": {
        "appinvite_service": {
          "other_platform_oauth_client": [
            {
              "client_id": "149384062292-1dhhksgu2akcaj6v9adshtu7i0s5rd0b.apps.googleusercontent.com",
              "client_type": 3
            }
          ]
        }
      }
    }
  ],
  "configuration_version": "1"
}